GES 668 - Fall 2023 - Session 3: Transforming data with {dplyr} and {tidyr}
…
The base pipe was added as a base R function with version 4.1.0 released in 2021. For simple uses, the base pipe is identical to the pipe from the magrittr package.

%>%

The %>% pipe is part of the magrittr package which is loaded as part of the tidyverse. This operator has some additional features but they are less frequently used.

2 select()

Select (and optionally rename) variables in a data frame, using a concise mini-language that makes it easy to refer to variables based on their name (e.g. a:f selects all columns from a on the left to f on the right) or type (e.g. where(is.numeric) selects all numeric columns).

Select the variables to keep:

select(storms, name, lat, long)

# A tibble: 19,066 × 3
   name    lat  long
   <chr> <dbl> <dbl>
 1 Amy    27.5 -79  
 2 Amy    28.5 -79  
 3 Amy    29.5 -79  
 4 Amy    30.5 -79  
 5 Amy    31.5 -78.8
 6 Amy    32.4 -78.7
 7 Amy    33.3 -78  
 8 Amy    34   -77  
 9 Amy    34.4 -75.8
10 Amy    34   -74.8
# ℹ 19,056 more rows

Select the variables to drop using - or !:

select(storms, !name)

# A tibble: 19,066 × 12
    year month   day  hour   lat  long status            category  wind pressure
   <dbl> <dbl> <int> <dbl> <dbl> <dbl> <fct>                <dbl> <int>    <int>
 1  1975     6    27     0  27.5 -79   tropical depress…       NA    25     1013
 2  1975     6    27     6  28.5 -79   tropical depress…       NA    25     1013
 3  1975     6    27    12  29.5 -79   tropical depress…       NA    25     1013
 4  1975     6    27    18  30.5 -79   tropical depress…       NA    25     1013
 5  1975     6    28     0  31.5 -78.8 tropical depress…       NA    25     1012
 6  1975     6    28     6  32.4 -78.7 tropical depress…       NA    25     1012
 7  1975     6    28    12  33.3 -78   tropical depress…       NA    25     1011
 8  1975     6    28    18  34   -77   tropical depress…       NA    30     1006
 9  1975     6    29     0  34.4 -75.8 tropical storm          NA    35     1004
10  1975     6    29     6  34   -74.8 tropical storm          NA    40     1002
# ℹ 19,056 more rows
# ℹ 2 more variables: tropicalstorm_force_diameter <int>,
#   hurricane_force_diameter <int>

Select a range of variables to keep using ::

select(storms, year:hour)

# A tibble: 19,066 × 4
    year month   day  hour
   <dbl> <dbl> <int> <dbl>
 1  1975     6    27     0
 2  1975     6    27     6
 3  1975     6    27    12
 4  1975     6    27    18
 5  1975     6    28     0
 6  1975     6    28     6
 7  1975     6    28    12
 8  1975     6    28    18
 9  1975     6    29     0
10  1975     6    29     6
# ℹ 19,056 more rows

Use helper functions from {tidyselect}:

select(storms, any_of(c("lat", "latitude", "y", "lon", "long", "longitude", "x")))

# A tibble: 19,066 × 2
     lat  long
   <dbl> <dbl>
 1  27.5 -79  
 2  28.5 -79  
 3  29.5 -79  
 4  30.5 -79  
 5  31.5 -78.8
 6  32.4 -78.7
 7  33.3 -78  
 8  34   -77  
 9  34.4 -75.8
10  34   -74.8
# ℹ 19,056 more rows

select works with unquoted and quoted inputs:

select(storms, wind)

# A tibble: 19,066 × 1
    wind
   <int>
 1    25
 2    25
 3    25
 4    25
 5    25
 6    25
 7    25
 8    30
 9    35
10    40
# ℹ 19,056 more rows

select(storms, "wind")

# A tibble: 19,066 × 1
    wind
   <int>
 1    25
 2    25
 3    25
 4    25
 5    25
 6    25
 7    25
 8    30
 9    35
10    40
# ℹ 19,056 more rows

select(storms, all_of("wind"))

# A tibble: 19,066 × 1
    wind
   <int>
 1    25
 2    25
 3    25
 4    25
 5    25
 6    25
 7    25
 8    30
 9    35
10    40
# ℹ 19,056 more rows
…
select(storms, wnd)

Error in `select()`:
! Can't subset columns that don't exist.
✖ Column `wnd` doesn't exist.

Your turn: use select to subset the variables for wind, pressure, tropical storm force diameter, and hurricane force dimeter.

2.1 Take a minute ⏰

OK. Here is one answer:

select(storms, wind, pressure, tropicalstorm_force_diameter, hurricane_force_diameter)

# A tibble: 19,066 × 4
    wind pressure tropicalstorm_force_diameter hurricane_force_diameter
   <int>    <int>                        <int>                    <int>
 1    25     1013                           NA                       NA
 2    25     1013                           NA                       NA
 3    25     1013                           NA                       NA
 4    25     1013                           NA                       NA
 5    25     1012                           NA                       NA
 6    25     1012                           NA                       NA
 7    25     1011                           NA                       NA
 8    30     1006                           NA                       NA
 9    35     1004                           NA                       NA
10    40     1002                           NA                       NA
# ℹ 19,056 more rows

Here is another answer:

select(storms, wind:hurricane_force_diameter)

# A tibble: 19,066 × 4
    wind pressure tropicalstorm_force_diameter hurricane_force_diameter
   <int>    <int>                        <int>                    <int>
 1    25     1013                           NA                       NA
 2    25     1013                           NA                       NA
 3    25     1013                           NA                       NA
 4    25     1013                           NA                       NA
 5    25     1012                           NA                       NA
 6    25     1012                           NA                       NA
 7    25     1011                           NA                       NA
 8    30     1006                           NA                       NA
 9    35     1004                           NA                       NA
10    40     1002                           NA                       NA
# ℹ 19,056 more rows

And here is yet another answer:

select(storms, wind, pressure, ends_with("diameter"))

# A tibble: 19,066 × 4
    wind pressure tropicalstorm_force_diameter hurricane_force_diameter
   <int>    <int>                        <int>                    <int>
 1    25     1013                           NA                       NA
 2    25     1013                           NA                       NA
 3    25     1013                           NA                       NA
 4    25     1013                           NA                       NA
 5    25     1012                           NA                       NA
 6    25     1012                           NA                       NA
 7    25     1011                           NA                       NA
 8    30     1006                           NA                       NA
 9    35     1004                           NA                       NA
10    40     1002                           NA                       NA
# ℹ 19,056 more rows

3 filter()

The filter() function is used to subset a data frame, retaining all rows that satisfy your conditions.

Use a logical condition to get rows that return TRUE:

filter(storms, wind >= 50)

# A tibble: 8,118 × 13
   name   year month   day  hour   lat  long status      category  wind pressure
   <chr> <dbl> <dbl> <int> <dbl> <dbl> <dbl> <fct>          <dbl> <int>    <int>
 1 Amy    1975     6    29    18  33.8 -72.8 tropical s…       NA    50      998
 2 Amy    1975     6    30     0  34.3 -71.6 tropical s…       NA    50      998
 3 Amy    1975     6    30     6  35.6 -70.8 tropical s…       NA    55      998
 4 Amy    1975     6    30    12  35.9 -70.5 tropical s…       NA    60      987
 5 Amy    1975     6    30    18  36.2 -70.2 tropical s…       NA    60      987
 6 Amy    1975     7     1     0  36.2 -69.8 tropical s…       NA    60      984
 7 Amy    1975     7     1     6  36.2 -69.4 tropical s…       NA    60      984
 8 Amy    1975     7     1    12  36.2 -68.3 tropical s…       NA    60      984
 9 Amy    1975     7     1    18  36.7 -67.2 tropical s…       NA    60      984
10 Amy    1975     7     2     0  37.4 -66.7 tropical s…       NA    60      984
# ℹ 8,108 more rows
# ℹ 2 more variables: tropicalstorm_force_diameter <int>,
#   hurricane_force_diameter <int>
…
[1] TRUE

!is.na(1)

[1] TRUE

1 %in% c(1, 2, 3)

[1] TRUE

Multiple tests separated by commas are combined so the returned rows pass all tests:

filter(storms, month == 9, day == 13)

# A tibble: 254 × 13
   name      year month   day  hour   lat  long status   category  wind pressure
   <chr>    <dbl> <dbl> <int> <dbl> <dbl> <dbl> <fct>       <dbl> <int>    <int>
 1 Eloise    1975     9    13    12  17.6 -55.2 tropica…       NA    25     1009
 2 Eloise    1975     9    13    18  17.7 -56.3 tropica…       NA    25     1009
 3 Flossie   1978     9    13     0  31.8 -42.9 hurrica…        2    85      976
 4 Flossie   1978     9    13    18  33.6 -43.1 hurrica…        1    75      985
 5 Hope      1978     9    13     0  31.1 -76.5 subtrop…       NA    25     1010
 6 Hope      1978     9    13    12  31.8 -74.2 subtrop…       NA    25     1009
 7 Frederic  1979     9    13     0  29.7 -88   hurrica…        4   115      946
 8 Frederic  1979     9    13     6  30.8 -88.5 hurrica…        2    95      955
 9 Frederic  1979     9    13    12  32.2 -88.7 hurrica…        1    65      975
10 Frederic  1979     9    13    18  34   -88   tropica…       NA    45      985
# ℹ 244 more rows
# ℹ 2 more variables: tropicalstorm_force_diameter <int>,
#   hurricane_force_diameter <int>
…
3.1 Take a minute ⏰

…

OK, here is an answer:

filter(
  storms,
  hurricane_force_diameter >= 115,
  tropicalstorm_force_diameter >= 240
)

# A tibble: 298 × 13
   name     year month   day  hour   lat  long status    category  wind pressure
   <chr>   <dbl> <dbl> <int> <dbl> <dbl> <dbl> <fct>        <dbl> <int>    <int>
 1 Frances  2004     9     1     6  21   -67.9 hurricane        4   120      939
 2 Frances  2004     9     1    12  21.4 -69.1 hurricane        4   120      937
 3 Frances  2004     9     1    18  21.8 -70.4 hurricane        4   120      941
 4 Frances  2004     9     2     0  22.2 -71.4 hurricane        4   120      939
 5 Frances  2004     9     2     6  22.7 -72.5 hurricane        4   125      937
 6 Frances  2004     9     2    12  23.2 -73.5 hurricane        4   120      939
 7 Frances  2004     9     2    18  23.8 -74.3 hurricane        4   115      948
 8 Frances  2004     9     3     0  24.2 -75   hurricane        3   105      948
 9 Frances  2004     9     3     6  24.7 -75.7 hurricane        3   100      954
10 Frances  2004     9     3    12  25.3 -76.3 hurricane        2    95      958
# ℹ 288 more rows
# ℹ 2 more variables: tropicalstorm_force_diameter <int>,
#   hurricane_force_diameter <int>

3.2 mutate()

mutate() creates new columns that are functions of existing variables.

It can also modify (if the name is the same as an existing column) and delete columns (by setting their value to NULL).

Use a function to add a new column based on existing variables:

mutate(storms, ratio = pressure / wind)

# A tibble: 19,066 × 14
   name   year month   day  hour   lat  long status      category  wind pressure
   <chr> <dbl> <dbl> <int> <dbl> <dbl> <dbl> <fct>          <dbl> <int>    <int>
 1 Amy    1975     6    27     0  27.5 -79   tropical d…       NA    25     1013
 2 Amy    1975     6    27     6  28.5 -79   tropical d…       NA    25     1013
 3 Amy    1975     6    27    12  29.5 -79   tropical d…       NA    25     1013
 4 Amy    1975     6    27    18  30.5 -79   tropical d…       NA    25     1013
 5 Amy    1975     6    28     0  31.5 -78.8 tropical d…       NA    25     1012
 6 Amy    1975     6    28     6  32.4 -78.7 tropical d…       NA    25     1012
 7 Amy    1975     6    28    12  33.3 -78   tropical d…       NA    25     1011
 8 Amy    1975     6    28    18  34   -77   tropical d…       NA    30     1006
 9 Amy    1975     6    29     0  34.4 -75.8 tropical s…       NA    35     1004
10 Amy    1975     6    29     6  34   -74.8 tropical s…       NA    40     1002
# ℹ 19,056 more rows
# ℹ 3 more variables: tropicalstorm_force_diameter <int>,
#   hurricane_force_diameter <int>, ratio <dbl>

mutate() also has a .before or .after parameter allowing you to add the new variables before or after a selected variable or range of variables:

mutate(storms, ratio = pressure / wind, .before = everything())

# A tibble: 19,066 × 14
   ratio name   year month   day  hour   lat  long status         category  wind
   <dbl> <chr> <dbl> <dbl> <int> <dbl> <dbl> <dbl> <fct>             <dbl> <int>
 1  40.5 Amy    1975     6    27     0  27.5 -79   tropical depr…       NA    25
 2  40.5 Amy    1975     6    27     6  28.5 -79   tropical depr…       NA    25
 3  40.5 Amy    1975     6    27    12  29.5 -79   tropical depr…       NA    25
 4  40.5 Amy    1975     6    27    18  30.5 -79   tropical depr…       NA    25
 5  40.5 Amy    1975     6    28     0  31.5 -78.8 tropical depr…       NA    25
 6  40.5 Amy    1975     6    28     6  32.4 -78.7 tropical depr…       NA    25
 7  40.4 Amy    1975     6    28    12  33.3 -78   tropical depr…       NA    25
 8  33.5 Amy    1975     6    28    18  34   -77   tropical depr…       NA    30
 9  28.7 Amy    1975     6    29     0  34.4 -75.8 tropical storm       NA    35
10  25.0 Amy    1975     6    29     6  34   -74.8 tropical storm       NA    40
# ℹ 19,056 more rows
# ℹ 3 more variables: pressure <int>, tropicalstorm_force_diameter <int>,
#   hurricane_force_diameter <int>

Window functions (also known as vectorized functions) are a group of functions that you can use with {dplyr}.

For example, lag() returns the previous value for a variable (effectively assumes the variable the observations are arranged in a meaningful order):

mutate(
  storms,
  lag_status = lag(status)
)

# A tibble: 19,066 × 14
   name   year month   day  hour   lat  long status      category  wind pressure
   <chr> <dbl> <dbl> <int> <dbl> <dbl> <dbl> <fct>          <dbl> <int>    <int>
 1 Amy    1975     6    27     0  27.5 -79   tropical d…       NA    25     1013
 2 Amy    1975     6    27     6  28.5 -79   tropical d…       NA    25     1013
 3 Amy    1975     6    27    12  29.5 -79   tropical d…       NA    25     1013
 4 Amy    1975     6    27    18  30.5 -79   tropical d…       NA    25     1013
 5 Amy    1975     6    28     0  31.5 -78.8 tropical d…       NA    25     1012
 6 Amy    1975     6    28     6  32.4 -78.7 tropical d…       NA    25     1012
 7 Amy    1975     6    28    12  33.3 -78   tropical d…       NA    25     1011
 8 Amy    1975     6    28    18  34   -77   tropical d…       NA    30     1006
 9 Amy    1975     6    29     0  34.4 -75.8 tropical s…       NA    35     1004
10 Amy    1975     6    29     6  34   -74.8 tropical s…       NA    40     1002
# ℹ 19,056 more rows
# ℹ 3 more variables: tropicalstorm_force_diameter <int>,
#   hurricane_force_diameter <int>, lag_status <fct>

There is actually a problem with this new variable. Can you think what it is?

In this case, the lag() function needs to be applied to a grouped data frame or it may return a value from a different storm and different year:

mutate(
  storms,
  lag_status = lag(status),
  .by = c(year, name)
)

# A tibble: 19,066 × 14
   name   year month   day  hour   lat  long status      category  wind pressure
   <chr> <dbl> <dbl> <int> <dbl> <dbl> <dbl> <fct>          <dbl> <int>    <int>
 1 Amy    1975     6    27     0  27.5 -79   tropical d…       NA    25     1013
 2 Amy    1975     6    27     6  28.5 -79   tropical d…       NA    25     1013
 3 Amy    1975     6    27    12  29.5 -79   tropical d…       NA    25     1013
 4 Amy    1975     6    27    18  30.5 -79   tropical d…       NA    25     1013
 5 Amy    1975     6    28     0  31.5 -78.8 tropical d…       NA    25     1012
 6 Amy    1975     6    28     6  32.4 -78.7 tropical d…       NA    25     1012
 7 Amy    1975     6    28    12  33.3 -78   tropical d…       NA    25     1011
 8 Amy    1975     6    28    18  34   -77   tropical d…       NA    30     1006
 9 Amy    1975     6    29     0  34.4 -75.8 tropical s…       NA    35     1004
10 Amy    1975     6    29     6  34   -74.8 tropical s…       NA    40     1002
# ℹ 19,056 more rows
# ℹ 3 more variables: tropicalstorm_force_diameter <int>,
#   hurricane_force_diameter <int>, lag_status <fct>
…
    wind < 8 ~ "Light Breeze",
    wind < 13 ~ "Gentle Breeze",
    wind < 19 ~ "Moderate Breeze",
    wind < 25 ~ "Fresh Breze",
    wind < 32 ~ "Strong Breeze",
    wind < 39 ~ "Near Gale",
    wind < 47 ~ "Gale",
    wind < 55 ~ "Strong Gale",
    wind < 64 ~ "Whole Gale",
    wind < 75 ~ "Storm Force",
    .default = "Hurricane Force"
  )
)

# A tibble: 19,066 × 14
   name   year month   day  hour   lat  long status      category  wind pressure
   <chr> <dbl> <dbl> <int> <dbl> <dbl> <dbl> <fct>          <dbl> <int>    <int>
 1 Amy    1975     6    27     0  27.5 -79   tropical d…       NA    25     1013
 2 Amy    1975     6    27     6  28.5 -79   tropical d…       NA    25     1013
 3 Amy    1975     6    27    12  29.5 -79   tropical d…       NA    25     1013
 4 Amy    1975     6    27    18  30.5 -79   tropical d…       NA    25     1013
 5 Amy    1975     6    28     0  31.5 -78.8 tropical d…       NA    25     1012
 6 Amy    1975     6    28     6  32.4 -78.7 tropical d…       NA    25     1012
 7 Amy    1975     6    28    12  33.3 -78   tropical d…       NA    25     1011
 8 Amy    1975     6    28    18  34   -77   tropical d…       NA    30     1006
 9 Amy    1975     6    29     0  34.4 -75.8 tropical s…       NA    35     1004
10 Amy    1975     6    29     6  34   -74.8 tropical s…       NA    40     1002
# ℹ 19,056 more rows
# ℹ 3 more variables: tropicalstorm_force_diameter <int>,
#   hurricane_force_diameter <int>, beaufort_desc <chr>
…
Spread

Most often you will want to use summarise() in combination with group_by():

storms |>
  group_by(year) |>
  summarise(
    n_names = n_distinct(name),
    max_category = max(category, na.rm = TRUE),
    mean_lat = mean(lat),
    mean_long = mean(long)
  )

# A tibble: 47 × 5
    year n_names max_category mean_lat mean_long
   <dbl>   <int>        <dbl>    <dbl>     <dbl>
 1  1975       8            4     28.3     -67.0
 2  1976       7            3     29.9     -57.9
 3  1977       6            5     31.0     -75.9
 4  1978      11            4     26.6     -65.5
 5  1979       8            5     24.2     -70.5
 6  1980      11            5     26.6     -56.1
 7  1981      11            4     28.3     -58.5
 8  1982       5            4     26.5     -63.2
 9  1983       4            3     31.1     -79.8
10  1984      12            4     28.6     -60.9
# ℹ 37 more rows

You can also use the .by parameter to define the groups for summarise():

summarise(
  storms,
  n_names = n_distinct(name),
  max_category = max(category, na.rm = TRUE),
  mean_lat = mean(lat),
  mean_long = mean(long),
  .by = year
)

# A tibble: 47 × 5
    year n_names max_category mean_lat mean_long
   <dbl>   <int>        <dbl>    <dbl>     <dbl>
 1  1975       8            4     28.3     -67.0
 2  1976       7            3     29.9     -57.9
 3  1977       6            5     31.0     -75.9
 4  1978      11            4     26.6     -65.5
 5  1979       8            5     24.2     -70.5
 6  1980      11            5     26.6     -56.1
 7  1981      11            4     28.3     -58.5
 8  1982       5            4     26.5     -63.2
 9  1983       4            3     31.1     -79.8
10  1984      12            4     28.6     -60.9
# ℹ 37 more rows
…
