GES 668 - Fall 2023 - Visualizing spatial data with ggplot2
…
What is this + operator?

Notice that we are combining the ggplot() and geom_point() functions using the + operator. This is a style of function or operator known as an infix operator.

Next week, we will introduce a similar function known as a pipe, %>% or |> that works to pass the output from one function (or line of code) into the next line as the first parameter in a function.

For example, see how we can use a series of pipes to operate on the storms data:

storms |>
  distinct(name)

# A tibble: 258 × 1
   name    
   <chr>   
 1 Amy     
 2 Blanche 
 3 Caroline
 4 Doris   
 5 Eloise  
 6 Faye    
 7 Gladys  
 8 Hallie  
 9 Belle   
10 Dottie  
# ℹ 248 more rows
…
