GES 668 - Fall 2023 - Fall 2023 Weekly Updates
…
storms_tracks

Simple feature collection with 639 features and 3 fields
Geometry type: LINESTRING
Dimension:     XY
Bounding box:  xmin: -109.3 ymin: 7 xmax: 13.5 ymax: 70.7
Geodetic CRS:  WGS 84
# A tibble: 639 × 4
# Groups:   year [47]
    year name     avg_wind                                              geometry
   <dbl> <chr>       <dbl>                                      <LINESTRING [°]>
 1  1975 Amy          46.5 (-48 47, -51.6 44.5, -54.8 42.5, -58 40.5, -78 33.3,…
 2  1975 Blanche      45   (-65.2 44, -62.4 47.2, -74.6 32.2, -75 31, -74.9 29.…
 3  1975 Caroline     38.9 (-90.1 22.8, -91 22.9, -91.9 23, -92.6 23.1, -93.6 2…
 4  1975 Doris        67.1 (-44.6 34.5, -44.9 34.6, -44 35.4, -44 34.9, -44.2 3…
 5  1975 Eloise       45   (-81.5 37.5, -82.5 37, -83.5 36.5, -84.3 35.5, -85.7…
 6  1975 Faye         68.4 (-46 42.8, -40 42.9, -52 42.3, -57.1 41, -63.7 38.4,…
 7  1975 Gladys       66.3 (-36.7 11, -35.8 10.6, -34.8 10.3, -37.4 11.4, -38.2…
 8  1975 Hallie       34.6 (-79.4 29.4, -79.7 30, -79.8 30.2, -79.9 30.5, -80.1…
 9  1976 Belle        68.1 (-75.2 32.5, -75.3 30.9, -75.3 29.5, -75.1 28.1, -73…
10  1976 Candice      49.5 (-51.2 44.4, -56.4 41.3, -59 41, -59.3 41.2, -68.2 3…
# ℹ 629 more rows
…
Can functions from the units work with any type of variable?

When might you use both tidyr::pivot_longer() and tidyr::pivot_wider()?

What is the purpose of the .value parameter used in names_to attribute of pivot_longer() function?

anscombe %>%
  pivot_longer(
    everything(),
    cols_vary = "slowest",
    names_to = c(".value", "set"),
    names_pattern = "(.)(.)"
  )

# A tibble: 44 × 3
   set       x     y
   <chr> <dbl> <dbl>
 1 1        10  8.04
 2 1         8  6.95
 3 1        13  7.58
 4 1         9  8.81
 5 1        11  8.33
 6 1        14  9.96
 7 1         6  7.24
 8 1         4  4.26
 9 1        12 10.8 
10 1         7  4.82
# ℹ 34 more rows
…
