GES 668 - Spring 2026 – Creating and manipulating attributes for spatial data
…
This works to aggregate features by division:

us_states |>
  group_by(DIVISION) |>
  summarise(
    n_states = n_distinct(NAME)
  )
#> Simple feature collection with 10 features and 2 fields
#> Geometry type: GEOMETRY
#> Dimension:     XY
#> Bounding box:  xmin: -19951910 ymin: -1643353 xmax: 20021890 ymax: 11554350
#> Projected CRS: WGS 84 / Pseudo-Mercator
#> # A tibble: 10 × 3
#>   DIVISION n_states                                                  geometry
#>   <chr>       <int>                                            <GEOMETRY [m]>
#> 1 0               5 MULTIPOLYGON (((-18726019 -1633065, -18725998 -1633025, …
#> 2 1               6 MULTIPOLYGON (((-7978692 5038758, -7978581 5039616, -797…
#> 3 2               3 POLYGON ((-8290777 4763109, -8291389 4762454, -8291849 4…
#> 4 3               5 POLYGON ((-9799335 4551032, -9799438 4550965, -9799539 4…
#> 5 4               7 POLYGON ((-10176807 4921011, -10176847 4920961, -1017704…
#> 6 5               9 MULTIPOLYGON (((-9250560 2835330, -9249947 2836819, -924…
#> # ℹ 4 more rows
…
This doesn’t entirely work (yet):

us_states |>
  group_by(DIVISION) |>
  summarise(
    n_states = n_distinct(NAME) # ,
    # .by = DIVISION
  )
#> Simple feature collection with 10 features and 2 fields
#> Geometry type: GEOMETRY
#> Dimension:     XY
#> Bounding box:  xmin: -19951910 ymin: -1643353 xmax: 20021890 ymax: 11554350
#> Projected CRS: WGS 84 / Pseudo-Mercator
#> # A tibble: 10 × 3
#>   DIVISION n_states                                                  geometry
#>   <chr>       <int>                                            <GEOMETRY [m]>
#> 1 0               5 MULTIPOLYGON (((-18726019 -1633065, -18725998 -1633025, …
#> 2 1               6 MULTIPOLYGON (((-7978692 5038758, -7978581 5039616, -797…
#> 3 2               3 POLYGON ((-8290777 4763109, -8291389 4762454, -8291849 4…
#> 4 3               5 POLYGON ((-9799335 4551032, -9799438 4550965, -9799539 4…
#> 5 4               7 POLYGON ((-10176807 4921011, -10176847 4920961, -1017704…
#> 6 5               9 MULTIPOLYGON (((-9250560 2835330, -9249947 2836819, -924…
#> # ℹ 4 more rows
…
lwgeom::st_perimeter()

geosphere::bearing()

us_states |>
  group_by(DIVISION) |>
  summarise(
    n_states = n_distinct(NAME)
  )
#> Simple feature collection with 10 features and 2 fields
#> Geometry type: GEOMETRY
#> Dimension:     XY
#> Bounding box:  xmin: -19951910 ymin: -1643353 xmax: 20021890 ymax: 11554350
#> Projected CRS: WGS 84 / Pseudo-Mercator
#> # A tibble: 10 × 3
#>   DIVISION n_states                                                  geometry
#>   <chr>       <int>                                            <GEOMETRY [m]>
#> 1 0               5 MULTIPOLYGON (((-18726019 -1633065, -18725998 -1633025, …
#> 2 1               6 MULTIPOLYGON (((-7978692 5038758, -7978581 5039616, -797…
#> 3 2               3 POLYGON ((-8290777 4763109, -8291389 4762454, -8291849 4…
#> 4 3               5 POLYGON ((-9799335 4551032, -9799438 4550965, -9799539 4…
#> 5 4               7 POLYGON ((-10176807 4921011, -10176847 4920961, -1017704…
#> 6 5               9 MULTIPOLYGON (((-9250560 2835330, -9249947 2836819, -924…
#> # ℹ 4 more rows
…
