GES 668 - Fall 2024 – Reading and writing spatial data
…
Read a KML file:

# Keyhole Markup Language (kml)
read_sf("https://github.com/ropensci/geojsonio/raw/main/inst/examples/poa_annua.kml")

Simple feature collection with 161 features and 2 fields
Geometry type: POINT
Dimension:     XY
Bounding box:  xmin: -167.15 ymin: 0 xmax: 0 ymax: 69.3333
Geodetic CRS:  WGS 84
# A tibble: 161 × 3
   Name                                    Description             geometry
   <chr>                                   <chr>                <POINT [°]>
 1 "Patterson's bluegrass, Patterson blue… "<table wi… (-113.9553 43.39448)
 2 "Patterson's bluegrass, Patterson blue… "<table wi…  (-114.1191 46.0793)
 3 "Patterson's bluegrass, Patterson blue… "<table wi…  (-114.1191 46.0793)
 4 "Patterson's bluegrass, Patterson blue… "<table wi…  (-114.1191 46.0793)
 5 "Patterson's bluegrass, Patterson blue… "<table wi… (-109.5936 44.49239)
 6 "Patterson's bluegrass, Patterson blue… "<table wi…  (-114.1191 46.0793)
 7 "Patterson's bluegrass, Patterson blue… "<table wi…   (-109.817 40.7667)
 8 "Patterson's bluegrass, Patterson blue… "<table wi…            (-105 39)
 9 "Patterson's bluegrass, Patterson blue… "<table wi… (-106.1376 39.62102)
10 "Patterson's bluegrass, Patterson blue… "<table wi…   (-111.183 40.6167)
# ℹ 151 more rows

Read a GeoPackage file:

# GeoPackage (gpkg)
read_sf("https://github.com/r-spatial/sf/raw/main/inst/gpkg/nc.gpkg")

Simple feature collection with 100 features and 14 fields
Geometry type: MULTIPOLYGON
Dimension:     XY
Bounding box:  xmin: -84.32385 ymin: 33.88199 xmax: -75.45698 ymax: 36.58965
Geodetic CRS:  NAD27
# A tibble: 100 × 15
    AREA PERIMETER CNTY_ CNTY_ID NAME  FIPS  FIPSNO CRESS_ID BIR74 SID74 NWBIR74
   <dbl>     <dbl> <dbl>   <dbl> <chr> <chr>  <dbl>    <int> <dbl> <dbl>   <dbl>
 1 0.114      1.44  1825    1825 Ashe  37009  37009        5  1091     1      10
 2 0.061      1.23  1827    1827 Alle… 37005  37005        3   487     0      10
 3 0.143      1.63  1828    1828 Surry 37171  37171       86  3188     5     208
 4 0.07       2.97  1831    1831 Curr… 37053  37053       27   508     1     123
 5 0.153      2.21  1832    1832 Nort… 37131  37131       66  1421     9    1066
 6 0.097      1.67  1833    1833 Hert… 37091  37091       46  1452     7     954
 7 0.062      1.55  1834    1834 Camd… 37029  37029       15   286     0     115
 8 0.091      1.28  1835    1835 Gates 37073  37073       37   420     0     254
 9 0.118      1.42  1836    1836 Warr… 37185  37185       93   968     4     748
10 0.124      1.43  1837    1837 Stok… 37169  37169       85  1612     1     160
# ℹ 90 more rows
# ℹ 4 more variables: BIR79 <dbl>, SID79 <dbl>, NWBIR79 <dbl>,
#   geom <MULTIPOLYGON [°]>
…
If the non-spatial data does not include a well-known text column, read_sf() still returns a data frame:

read_sf("https://github.com/elipousson/marylandedu/raw/main/data-raw/extdata/Enrollment_By_Grade_2023.csv")

# A tibble: 9,766 × 8
   Year  LEA   `LEA Name` School `School Name`         Grade    `Enrolled Count`
   <chr> <chr> <chr>      <chr>  <chr>                 <chr>    <chr>           
 1 2023  01    Allegany   0301   Flintstone Elementary Prekind… 19              
 2 2023  01    Allegany   0301   Flintstone Elementary Kinderg… 42              
 3 2023  01    Allegany   0301   Flintstone Elementary Grade 1  33              
 4 2023  01    Allegany   0301   Flintstone Elementary Grade 2  29              
 5 2023  01    Allegany   0301   Flintstone Elementary Grade 3  26              
 6 2023  01    Allegany   0301   Flintstone Elementary Grade 4  31              
 7 2023  01    Allegany   0301   Flintstone Elementary Grade 5  36              
 8 2023  01    Allegany   0301   Flintstone Elementary All Gra… 216             
 9 2023  01    Allegany   0401   South Penn Elementary Prekind… 77              
10 2023  01    Allegany   0401   South Penn Elementary Kinderg… 79              
# ℹ 9,756 more rows
# ℹ 1 more variable: `Create Date` <chr>
…
# Shapefile (shp)
read_sf("https://github.com/r-spatial/sf/raw/main/inst/shape/nc.shp")

Error: Cannot open "https://github.com/r-spatial/sf/raw/main/inst/shape/nc.shp"; The file doesn't seem to exist.

But it does work if you provide a local file path (system.file() returns a file path in this case):

read_sf(system.file("shape/nc.shp", package = "sf"))

Simple feature collection with 100 features and 14 fields
Geometry type: MULTIPOLYGON
Dimension:     XY
Bounding box:  xmin: -84.32385 ymin: 33.88199 xmax: -75.45698 ymax: 36.58965
Geodetic CRS:  NAD27
# A tibble: 100 × 15
    AREA PERIMETER CNTY_ CNTY_ID NAME  FIPS  FIPSNO CRESS_ID BIR74 SID74 NWBIR74
   <dbl>     <dbl> <dbl>   <dbl> <chr> <chr>  <dbl>    <int> <dbl> <dbl>   <dbl>
 1 0.114      1.44  1825    1825 Ashe  37009  37009        5  1091     1      10
 2 0.061      1.23  1827    1827 Alle… 37005  37005        3   487     0      10
 3 0.143      1.63  1828    1828 Surry 37171  37171       86  3188     5     208
 4 0.07       2.97  1831    1831 Curr… 37053  37053       27   508     1     123
 5 0.153      2.21  1832    1832 Nort… 37131  37131       66  1421     9    1066
 6 0.097      1.67  1833    1833 Hert… 37091  37091       46  1452     7     954
 7 0.062      1.55  1834    1834 Camd… 37029  37029       15   286     0     115
 8 0.091      1.28  1835    1835 Gates 37073  37073       37   420     0     254
 9 0.118      1.42  1836    1836 Warr… 37185  37185       93   968     4     748
10 0.124      1.43  1837    1837 Stok… 37169  37169       85  1612     1     160
# ℹ 90 more rows
# ℹ 4 more variables: BIR79 <dbl>, SID79 <dbl>, NWBIR79 <dbl>,
#   geometry <MULTIPOLYGON [°]>
…
read_sf("https://services.arcgis.com/njFNhDsUCentVYJW/arcgis/rest/services/MDOT_SHA_County_Boundaries/FeatureServer/0")

Error: Cannot open "https://services.arcgis.com/njFNhDsUCentVYJW/arcgis/rest/services/MDOT_SHA_County_Boundaries/FeatureServer/0"; The file doesn't seem to exist.

But a FeatureServer URL that includes the output format does work:

read_sf("https://services.arcgis.com/njFNhDsUCentVYJW/arcgis/rest/services/MDOT_SHA_County_Boundaries/FeatureServer/0/query?outFields=*&where=1%3D1&f=geojson")

Simple feature collection with 24 features and 17 fields
Geometry type: POLYGON
Dimension:     XY
Bounding box:  xmin: -79.48731 ymin: 37.88654 xmax: -75.0492 ymax: 39.72288
Geodetic CRS:  WGS 84
# A tibble: 24 × 18
   OBJECTID COUNTY_NAME     COUNTY_INTEGER COUNTY_ABBREVIATION COUNTY_DIGITCAPS
      <int> <chr>                    <int> <chr>                          <int>
 1        1 Prince George's             16 PG                                16
 2        2 Cecil                        7 CE                                 7
 3        3 Howard                      13 HO                                13
 4        4 Talbot                      20 TA                                20
 5        5 Garrett                     11 GA                                11
 6        6 Baltimore City              24 BC                                24
 7        7 Carroll                      6 CL                                 6
 8        8 Washington                  21 WA                                21
 9        9 Worcester                   23 WO                                23
10       10 Frederick                   10 FR                                10
# ℹ 14 more rows
# ℹ 13 more variables: COUNTY_2DIGITCAPS <chr>, DISTRICT_NAME <chr>,
#   DISTRICT_NUMBER <int>, COUNTY_FIP <int>, COUNTYNUM <int>, TSD_ID <int>,
#   COUNTY <chr>, DISTRICT <int>, Shape__Area <dbl>, Shape__Length <dbl>,
#   COUNTY_ALLCAPS <chr>, Region <chr>, geometry <POLYGON [°]>
…
